…
6. What are the arguments to `[`? Why is this a hard question to answer?

The arguments to `[` will depend on the input object (ie: is the input a vector,
matrix, array, data frame, or a list?).


```r
s3_methods_generic("[")
```

```
## # A tibble: 47 × 4
##    generic class                 visible source             
##    <chr>   <chr>                 <lgl>   <chr>              
##  1 [       acf                   FALSE   registered S3method
##  2 [       AsIs                  TRUE    base               
##  3 [       bibentry              FALSE   registered S3method
##  4 [       check_details_changes FALSE   registered S3method
##  5 [       cli_doc               FALSE   registered S3method
##  6 [       data.frame            TRUE    base               
##  7 [       Date                  TRUE    base               
##  8 [       difftime              TRUE    base               
##  9 [       Dlist                 TRUE    base               
## 10 [       DLLInfoList           TRUE    base               
## # … with 37 more rows
```
…
